<svg width="28" height="18" viewBox="0 0 28 18" fill="none" xmlns="http://www.w3.org/2000/svg">
<path d="M25.042 1.15227C25.038 0.510246 24.544 -0.00422567 23.9376 2.61653e-05L14.0461 0.0361668L4.15451 2.61653e-05C3.54808 -0.00422567 3.05411 0.512372 3.05009 1.15227L3.04407 2.03028V14.9303L14.0461 14.9027L25.0481 14.9303L25.042 1.15227ZM23.7087 13.4932L14.0461 13.5187L4.38342 13.4932L4.36535 1.65824C4.36535 1.54344 4.4537 1.45203 4.56013 1.45203H23.532" fill="#fff"/>
<path d="M27.8092 15.9504L17.6385 15.9122L17.3494 16.4139H10.6245L10.3634 15.8867L0.194779 15.8484C0.0863453 15.8484 0 15.9398 0 16.0546V16.6966C0 16.7795 0.0461847 16.8539 0.116466 16.8858L1.55622 17.5513C1.93574 17.7256 2.34337 17.817 2.75702 17.817H25.247C25.6606 17.8191 26.0542 17.8149 26.4337 17.6427L27.8775 16.9879C27.9498 16.956 27.9959 16.8816 27.9959 16.7987L28 16.1566C28.002 16.044 27.9156 15.9504 27.8092 15.9504Z" fill="#fff"/>
<path d="M15.3172 8.56258C16.3232 8.04386 17.018 6.95114 17.018 5.68622C17.018 3.92171 15.6666 2.49097 13.9999 2.49097C12.3333 2.49097 10.9819 3.92171 10.9819 5.68622C10.9819 6.95114 11.6766 8.04386 12.6826 8.56258C10.6365 9.1706 9.13647 11.1605 9.13647 13.5202H18.8634C18.8634 11.1583 17.3634 9.1706 15.3172 8.56258Z" fill="#fff"/>
</svg>
