<svg width="47" height="46" viewBox="0 0 47 46" fill="none" xmlns="http://www.w3.org/2000/svg">
<path d="M2.2207 40.334C2.27539 40.7285 2.38281 41.0234 2.54297 41.2188C2.83594 41.5742 3.33789 41.752 4.04883 41.752C4.47461 41.752 4.82031 41.7051 5.08594 41.6113C5.58984 41.4316 5.8418 41.0977 5.8418 40.6094C5.8418 40.3242 5.7168 40.1035 5.4668 39.9473C5.2168 39.7949 4.82422 39.6602 4.28906 39.543L3.375 39.3379C2.47656 39.1348 1.85547 38.9141 1.51172 38.6758C0.929688 38.2773 0.638672 37.6543 0.638672 36.8066C0.638672 36.0332 0.919922 35.3906 1.48242 34.8789C2.04492 34.3672 2.87109 34.1113 3.96094 34.1113C4.87109 34.1113 5.64648 34.3535 6.28711 34.8379C6.93164 35.3184 7.26953 36.0176 7.30078 36.9355H5.56641C5.53516 36.416 5.30859 36.0469 4.88672 35.8281C4.60547 35.6836 4.25586 35.6113 3.83789 35.6113C3.37305 35.6113 3.00195 35.7051 2.72461 35.8926C2.44727 36.0801 2.30859 36.3418 2.30859 36.6777C2.30859 36.9863 2.44531 37.2168 2.71875 37.3691C2.89453 37.4707 3.26953 37.5898 3.84375 37.7266L5.33203 38.084C5.98438 38.2402 6.47656 38.4492 6.80859 38.7109C7.32422 39.1172 7.58203 39.7051 7.58203 40.4746C7.58203 41.2637 7.2793 41.9199 6.67383 42.4434C6.07227 42.9629 5.2207 43.2227 4.11914 43.2227C2.99414 43.2227 2.10938 42.9668 1.46484 42.4551C0.820312 41.9395 0.498047 41.2324 0.498047 40.334H2.2207ZM10.1062 43V34.3633H11.8934V37.6562H15.2684V34.3633H17.0613V43H15.2684V39.1445H11.8934V43H10.1062ZM22.3512 39.7363H24.5426L23.4645 36.3379L22.3512 39.7363ZM22.4625 34.3633H24.5016L27.5602 43H25.6031L25.0465 41.2246H21.8648L21.2672 43H19.3805L22.4625 34.3633ZM31.6664 35.8633V38.1836H33.7113C34.1176 38.1836 34.4223 38.1367 34.6254 38.043C34.9848 37.8789 35.1645 37.5547 35.1645 37.0703C35.1645 36.5469 34.9906 36.1953 34.643 36.0156C34.4477 35.9141 34.1547 35.8633 33.7641 35.8633H31.6664ZM34.1391 34.3633C34.7445 34.375 35.2094 34.4492 35.5336 34.5859C35.8617 34.7227 36.1391 34.9238 36.3656 35.1895C36.5531 35.4082 36.7016 35.6504 36.8109 35.916C36.9203 36.1816 36.975 36.4844 36.975 36.8242C36.975 37.2344 36.8715 37.6387 36.6645 38.0371C36.4574 38.4316 36.1156 38.7109 35.6391 38.875C36.0375 39.0352 36.3188 39.2637 36.4828 39.5605C36.6508 39.8535 36.7348 40.3027 36.7348 40.9082V41.4883C36.7348 41.8828 36.7504 42.1504 36.7816 42.291C36.8285 42.5137 36.9379 42.6777 37.1098 42.7832V43H35.1234C35.0688 42.8086 35.0297 42.6543 35.0063 42.5371C34.9594 42.2949 34.934 42.0469 34.9301 41.793L34.9184 40.9902C34.9105 40.4395 34.809 40.0723 34.6137 39.8887C34.4223 39.7051 34.0609 39.6133 33.5297 39.6133H31.6664V43H29.9027V34.3633H34.1391ZM46.1203 35.8926H41.55V37.7266H45.7453V39.2266H41.55V41.4473H46.3312V43H39.7863V34.3633H46.1203V35.8926Z" fill="#243646"/>
<path d="M14.5 13.5V22.5C14.5 23.0967 14.7371 23.669 15.159 24.091C15.581 24.5129 16.1533 24.75 16.75 24.75H30.25C30.8467 24.75 31.419 24.5129 31.841 24.091C32.2629 23.669 32.5 23.0967 32.5 22.5V13.5" stroke="#243646" stroke-width="2.5" stroke-linecap="round" stroke-linejoin="round"/>
<path d="M28 6.75L23.5 2.25L19 6.75" stroke="#243646" stroke-width="2.5" stroke-linecap="round" stroke-linejoin="round"/>
<path d="M23.5 2.25V16.875" stroke="#243646" stroke-width="2.5" stroke-linecap="round" stroke-linejoin="round"/>
<rect x="10" width="27" height="27" />
</svg>
